
{
    "type": "object",
    "properties": {
        "json-output-2": {
            "type": "object",
            "properties": {
                "Result": {
                    "type": "array",
                    "items": {
                        "type": "string",
                        "default": "Deployment successful!"
                    }
                }
            },
            "description": "",
            "example": {
                "Result": [
                    "Deployment successful!"
                ]
            }
        }
    }
}