
{
    "type": "object",
    "properties": {
        "json-output-2": {
            "type": "object",
            "properties": {
                "filePath": {
                    "type": "string",
                    "default": "knime://knime.mountpoint/SCD_Model_Factory/tmp/ENT_037_Load_2020-06-26T16-58-12.621.table"
                }
            },
            "description": "",
            "example": {
                "filePath": "knime://knime.mountpoint/SCD_Model_Factory/tmp/ENT_037_Load_2020-06-26T16-58-12.621.table"
            }
        }
    }
}