
{
    "type": "object",
    "properties": {
        "json-input-1": {
            "type": "object",
            "properties": {
            },
            "description": "",
            "example": {
            }
        },
        "string-input-0:3": {
            "type": "string",
            "default": "knime://knime.mountpoint/SCD_Model_Factory/tmp",
            "description": "Enter Description",
            "example": "knime://knime.mountpoint/SCD_Model_Factory/tmp"
        },
        "string-input-15": {
            "type": "string",
            "default": "ENT_038_Score",
            "description": "",
            "example": "ENT_038_Score"
        }
    }
}