
{
    "version": "4.1.3.v202005121100",
    "created": "2020-07-27 11:40",
    "nodestats": {
        "nodes": [
            {
                "id": "org.knime.base.node.io.tablecreator.TableCreator2NodeFactory#Table Creator",
                "nrexecs": 9,
                "nrfails": 0,
                "exectime": 117,
                "nrcreated": 0,
                "successor": "n/a"
            },
            {
                "id": "org.knime.datageneration.emptyfilecreato.EmptyFileCreatorNodeFactory#Empty Table Creator",
                "nrexecs": 4,
                "nrfails": 0,
                "exectime": 59,
                "nrcreated": 0,
                "successor": "n/a"
            },
            {
                "id": "org.knime.base.node.flowcontrol.trycatch.generictry.VariablePortTryNodeFactory#Try (Variable Ports)",
                "nrexecs": 4,
                "nrfails": 0,
                "exectime": 4,
                "nrcreated": 0,
                "successor": "n/a"
            },
            {
                "id": "org.knime.base.node.io.table.read.ReadTableNodeFactory#Table Reader",
                "nrexecs": 11,
                "nrfails": 0,
                "exectime": 607,
                "nrcreated": 0,
                "successor": "n/a"
            },
            {
                "id": "org.knime.base.node.flowcontrol.trycatch.genericcatch.DataPortCatchNodeFactory#Catch Errors (Data Ports)",
                "nrexecs": 1,
                "nrfails": 0,
                "exectime": 0,
                "nrcreated": 0,
                "successor": "n/a"
            },
            {
                "id": "org.knime.base.node.preproc.filter.rowref.RowSplitRefNodeFactory#Reference Row Splitter",
                "nrexecs": 1,
                "nrfails": 0,
                "exectime": 5,
                "nrcreated": 0,
                "successor": "n/a"
            },
            {
                "id": "org.knime.base.node.flowvariable.variableloophead.LoopStartVariableNodeFactory#Table Row To Variable Loop Start",
                "nrexecs": 1,
                "nrfails": 0,
                "exectime": 2,
                "nrcreated": 0,
                "successor": "n/a"
            },
            {
                "id": "org.knime.base.node.preproc.filter.row.RowFilterNodeFactory#Row Filter",
                "nrexecs": 5,
                "nrfails": 0,
                "exectime": 354,
                "nrcreated": 0,
                "successor": "n/a"
            },
            {
                "id": "org.knime.base.node.preproc.stringmanipulation.StringManipulationNodeFactory#String Manipulation",
                "nrexecs": 1,
                "nrfails": 0,
                "exectime": 8,
                "nrcreated": 0,
                "successor": "n/a"
            },
            {
                "id": "org.knime.base.node.preproc.filter.row.RowFilter2PortNodeFactory#Row Splitter",
                "nrexecs": 12,
                "nrfails": 0,
                "exectime": 54,
                "nrcreated": 0,
                "successor": "n/a"
            },
            {
                "id": "org.knime.base.node.flowvariable.tablerowtovariable.TableToVariableNodeFactory#Table Row to Variable (deprecated)",
                "nrexecs": 12,
                "nrfails": 0,
                "exectime": 9,
                "nrcreated": 0,
                "successor": "n/a"
            },
            {
                "id": "org.knime.base.node.flowvariable.appendvariabletotable2.AppendVariableToTable2NodeFactory#Variable to Table Column (deprecated)",
                "nrexecs": 2,
                "nrfails": 0,
                "exectime": 2,
                "nrcreated": 0,
                "successor": "n/a"
            },
            {
                "id": "org.knime.json.node.fromtable.TableToJsonNodeFactory#Table to JSON",
                "nrexecs": 6,
                "nrfails": 0,
                "exectime": 29,
                "nrcreated": 0,
                "successor": "n/a"
            },
            {
                "id": "org.knime.json.node.input.JSONInputNodeFactory#Container Input (JSON)",
                "nrexecs": 3,
                "nrfails": 0,
                "exectime": 303,
                "nrcreated": 0,
                "successor": "n/a"
            },
            {
                "id": "org.knime.json.node.totable.JSONToTableNodeFactory#JSON to Table",
                "nrexecs": 9,
                "nrfails": 0,
                "exectime": 76,
                "nrcreated": 0,
                "successor": "n/a"
            },
            {
                "id": "org.knime.base.node.preproc.filter.column.DataColumnSpecFilterNodeFactory#Column Filter",
                "nrexecs": 21,
                "nrfails": 0,
                "exectime": 8,
                "nrcreated": 0,
                "successor": "n/a"
            },
            {
                "id": "org.knime.json.node.output.JSONOutputNodeFactory#Container Output (JSON)",
                "nrexecs": 2,
                "nrfails": 0,
                "exectime": 0,
                "nrcreated": 0,
                "successor": "n/a"
            },
            {
                "id": "org.knime.explorer.nodes.callworkflow.local.CallLocalWorkflowNodeFactory#Call Local Workflow (Row Based)",
                "nrexecs": 5,
                "nrfails": 0,
                "exectime": 7039,
                "nrcreated": 0,
                "successor": "n/a"
            },
            {
                "id": "org.knime.base.node.preproc.append.row.AppendedRowsNodeFactory#Concatenate",
                "nrexecs": 8,
                "nrfails": 0,
                "exectime": 0,
                "nrcreated": 0,
                "successor": "n/a"
            },
            {
                "id": "org.knime.base.node.preproc.rename.RenameNodeFactory#Column Rename",
                "nrexecs": 9,
                "nrfails": 0,
                "exectime": 2,
                "nrcreated": 0,
                "successor": "n/a"
            },
            {
                "id": "org.knime.base.node.preproc.crossjoin.CrossJoinerNodeFactory#Cross Joiner",
                "nrexecs": 4,
                "nrfails": 0,
                "exectime": 4,
                "nrcreated": 0,
                "successor": "n/a"
            },
            {
                "id": "org.knime.js.base.node.quickform.input.string.StringInputQuickFormNodeFactory#String Input",
                "nrexecs": 6,
                "nrfails": 0,
                "exectime": 101,
                "nrcreated": 0,
                "successor": "n/a"
            },
            {
                "id": "org.knime.core.node.workflow.virtual.subnode.VirtualSubNodeInputNodeFactory#Component Input",
                "nrexecs": 3,
                "nrfails": 0,
                "exectime": 8,
                "nrcreated": 0,
                "successor": "n/a"
            },
            {
                "id": "org.knime.timeseries.node.generator.DateGeneratorNodeFactory#Time Generator (legacy)",
                "nrexecs": 4,
                "nrfails": 0,
                "exectime": 12,
                "nrcreated": 0,
                "successor": "n/a"
            },
            {
                "id": "org.knime.base.node.jsnippet.JavaEditVarNodeFactory#Java Edit Variable",
                "nrexecs": 4,
                "nrfails": 0,
                "exectime": 25,
                "nrcreated": 0,
                "successor": "n/a"
            },
            {
                "id": "org.knime.base.node.util.mergevariables.MergeVariablesNodeFactory#Merge Variables",
                "nrexecs": 2,
                "nrfails": 0,
                "exectime": 1,
                "nrcreated": 0,
                "successor": "n/a"
            },
            {
                "id": "org.knime.base.node.preproc.stringmanipulation.variable.StringManipulationVariableNodeFactory#String Manipulation (Variable)",
                "nrexecs": 3,
                "nrfails": 0,
                "exectime": 2,
                "nrcreated": 0,
                "successor": "n/a"
            },
            {
                "id": "org.knime.base.node.flowvariable.createfilename.CreateFilenameNodeFactory#Create File Name",
                "nrexecs": 3,
                "nrfails": 0,
                "exectime": 1,
                "nrcreated": 0,
                "successor": "n/a"
            },
            {
                "id": "org.knime.core.node.workflow.virtual.subnode.VirtualSubNodeOutputNodeFactory#Component Output",
                "nrexecs": 3,
                "nrfails": 0,
                "exectime": 3,
                "nrcreated": 0,
                "successor": "n/a"
            },
            {
                "id": "org.knime.base.node.io.csvreader.CSVReaderNodeFactory#CSV Reader",
                "nrexecs": 1,
                "nrfails": 0,
                "exectime": 3980,
                "nrcreated": 0,
                "successor": "n/a"
            },
            {
                "id": "org.knime.base.node.io.table.write.WriteTableNodeFactory#Table Writer",
                "nrexecs": 2,
                "nrfails": 0,
                "exectime": 781,
                "nrcreated": 0,
                "successor": "n/a"
            },
            {
                "id": "org.knime.base.node.flowvariable.variabletotablerow2.VariableToTable2NodeFactory#Variable to Table Row (deprecated)",
                "nrexecs": 1,
                "nrfails": 0,
                "exectime": 1,
                "nrcreated": 0,
                "successor": "n/a"
            },
            {
                "id": "org.knime.python2.nodes.script.Python2ScriptNodeFactory#Python Script (1⇒1)",
                "nrexecs": 0,
                "nrfails": 3,
                "exectime": 920,
                "nrcreated": 0,
                "successor": "n/a"
            },
            {
                "id": "org.knime.base.node.rules.engine.RuleEngineVariableNodeFactory#Rule Engine Variable",
                "nrexecs": 1,
                "nrfails": 0,
                "exectime": 0,
                "nrcreated": 0,
                "successor": "n/a"
            },
            {
                "id": "org.knime.base.node.switches.startcase.StartcaseNodeFactory#CASE Switch Data (Start)",
                "nrexecs": 1,
                "nrfails": 0,
                "exectime": 1,
                "nrcreated": 0,
                "successor": "n/a"
            },
            {
                "id": "org.knime.base.node.util.cache.CacheNodeFactory#Cache",
                "nrexecs": 2,
                "nrfails": 0,
                "exectime": 8,
                "nrcreated": 0,
                "successor": "n/a"
            },
            {
                "id": "org.knime.base.node.preproc.columnappend.ColumnAppenderNodeFactory#Column Appender",
                "nrexecs": 5,
                "nrfails": 0,
                "exectime": 0,
                "nrcreated": 0,
                "successor": "n/a"
            },
            {
                "id": "org.knime.base.node.preproc.filter.rowref.RowFilterRefNodeFactory#Reference Row Filter",
                "nrexecs": 3,
                "nrfails": 0,
                "exectime": 2,
                "nrcreated": 0,
                "successor": "n/a"
            },
            {
                "id": "org.knime.base.node.switches.endif.EndifNodeFactory#End IF",
                "nrexecs": 1,
                "nrfails": 0,
                "exectime": 1,
                "nrcreated": 0,
                "successor": "n/a"
            },
            {
                "id": "org.knime.base.node.preproc.constantvalue.ConstantValueColumnNodeFactory#Constant Value Column",
                "nrexecs": 2,
                "nrfails": 0,
                "exectime": 0,
                "nrcreated": 0,
                "successor": "n/a"
            },
            {
                "id": "org.knime.timeseries.node.time2string.Time2StringNodeFactory#Time to String (legacy)",
                "nrexecs": 1,
                "nrfails": 0,
                "exectime": 1,
                "nrcreated": 0,
                "successor": "n/a"
            }
        ],
        "metaNodes": {
        },
        "wrappedNodes": {
            "nrexecs": 3,
            "nrfails": 0,
            "exectime": 69,
            "nrcreated": 0
        }
    },
    "uptime": 1885241,
    "workflowsOpened": 2,
    "remoteWorkflowsOpened": 0,
    "workflowsImported": 0,
    "workflowsExported": 0,
    "launches": 1,
    "lastApplicationID": "org.knime.product.KNIME_APPLICATION",
    "timeSinceLastStart": 1885241,
    "crashes": 0,
    "properlyShutDown": false
}