
{
    "type": "object",
    "properties": {
        "json-output-2": {
            "type": "object",
            "properties": {
                "filePath_Test": {
                    "type": "string",
                    "default": "knime://knime.mountpoint/SCD_Model_Factory/tmp/ENT_040_Test_2020-06-26T17-35-00.785.table"
                },
                "filePath_Train": {
                    "type": "string",
                    "default": "knime://knime.mountpoint/SCD_Model_Factory/tmp/ENT_040_Train_2020-06-26T17-35-00.785.table"
                }
            },
            "description": "",
            "example": {
                "filePath_Test": "knime://knime.mountpoint/SCD_Model_Factory/tmp/ENT_040_Test_2020-06-26T17-35-00.785.table",
                "filePath_Train": "knime://knime.mountpoint/SCD_Model_Factory/tmp/ENT_040_Train_2020-06-26T17-35-00.785.table"
            }
        }
    }
}