runId, startDateLocal, repId, startDateTime, publishedDate
1,2018-02-01,1001,2018-02-01T00:00:00.000-08:00,2018-02-01 00:00:00
1,2018-02-01,1002,2018-02-01T00:00:00.000-08:00,2018-02-01 00:00:00
1,2018-02-01,1003,2018-02-01T00:00:00.000-08:00,2018-02-01 00:00:00
1,2018-02-01,1004,2018-02-01T00:00:00.000-08:00,2018-02-01 00:00:00
1,2018-02-01,1005,2018-02-01T00:00:00.000-08:00,2018-02-01 00:00:00
1,2018-02-01,1006,2018-02-01T00:00:00.000-08:00,2018-02-01 00:00:00
1,2018-02-01,1007,2018-02-01T00:00:00.000-08:00,2018-02-01 00:00:00
1,2018-02-01,1008,2018-02-01T00:00:00.000-08:00,2018-02-01 00:00:00
1,2018-02-01,1009,2018-02-01T00:00:00.000-08:00,2018-02-01 00:00:00
1,2018-02-01,1010,2018-02-01T00:00:00.000-08:00,2018-02-01 00:00:00
3,2018-02-03,1001,2018-02-03T00:00:00.000-08:00,2018-02-03 00:00:00
3,2018-02-03,1002,2018-02-03T00:00:00.000-08:00,2018-02-03 00:00:00
3,2018-02-03,1003,2018-02-03T00:00:00.000-08:00,2018-02-03 00:00:00
3,2018-02-03,1004,2018-02-03T00:00:00.000-08:00,2018-02-03 00:00:00
3,2018-02-03,1005,2018-02-03T00:00:00.000-08:00,2018-02-03 00:00:00
3,2018-02-03,1006,2018-02-03T00:00:00.000-08:00,2018-02-03 00:00:00
3,2018-02-03,1007,2018-02-03T00:00:00.000-08:00,2018-02-03 00:00:00
3,2018-02-03,1008,2018-02-03T00:00:00.000-08:00,2018-02-03 00:00:00
3,2018-02-03,1009,2018-02-03T00:00:00.000-08:00,2018-02-03 00:00:00
3,2018-02-03,1010,2018-02-03T00:00:00.000-08:00,2018-02-03 00:00:00
2,2018-02-02,1001,2018-02-02T00:00:00.000-08:00,2018-02-02 00:00:00
2,2018-02-02,1002,2018-02-02T00:00:00.000-08:00,2018-02-02 00:00:00
2,2018-02-02,1003,2018-02-02T00:00:00.000-08:00,2018-02-02 00:00:00
2,2018-02-02,1004,2018-02-02T00:00:00.000-08:00,2018-02-02 00:00:00
2,2018-02-02,1005,2018-02-02T00:00:00.000-08:00,2018-02-02 00:00:00
2,2018-02-02,1006,2018-02-02T00:00:00.000-08:00,2018-02-02 00:00:00
2,2018-02-02,1007,2018-02-02T00:00:00.000-08:00,2018-02-02 00:00:00
2,2018-02-02,1008,2018-02-02T00:00:00.000-08:00,2018-02-02 00:00:00
2,2018-02-02,1009,2018-02-02T00:00:00.000-08:00,2018-02-02 00:00:00
2,2018-02-02,1010,2018-02-02T00:00:00.000-08:00,2018-02-02 00:00:00
