externalId, suggestionLifeCycleId, runId, runUID, repTeamId, repTeamUID, repTeamName, seConfigId, seConfigName, runGroupId, suggestedDate, startDateLocal, repId, repUID, repName, repCreatedAt, accountId, accountUID, runRepDateSuggestionId, accountName, detailRepActionTypeId, detailRepActionTypeUID, detailRepActionName, runRepDateSuggestionDetailId, productId, productUID, productName, messageId, messageUID, messageName, suggestionUID, suggestionReferenceId, lastViewedAt, viewedAt, viewedDuration, actionTaken, actionTaken_dt, isSuggestionCompleted, isSuggestionCompletedDirect, isSuggestionCompletedInfer, isSuggestionDismissed, dismissReasonType, dismissReason, dismissReason_dt, isSuggestionActive, facilityLatitude, facilityLongitude, facilityGeoLocationString, repLatitude, repLongitude, territoryCityName, districtName, territoryId, territoryName, regionName, regionGroup, dismissedAt, dismissCount, lastPublishedAt, createdAt, updatedAt, reportedInteractionUID, inferredInteractionUID, interactionUID, completedAt, inferredAt, isFirstSuggestedDate, isLastSuggestedDate, suggestionDriver, timeoffday, isHighestRunidForDay, holiday_weekend_Flag, crmFieldName, reasonText, reasonRank, runRepDateSuggestionReasonId, repRole, repBag, dmUID, dmName, interactionId, isCompleted, startDateTime, isREMix, isDSESpark, arc_createdAt, arc_updatedAt
1001,3,ag,,3,,,,1,a,,2018-02-03,2018-01-15,a,Rep1,,,,,,3,,,,,,,,,,,ag1,,,,No Action Taken,,,,,,,,,,,,,,,,,,,,,,,,2018-02-15T12:00:00.000-08:00,2018-02-15T12:00:00.000-08:00,,,,,,,,Target,,,,,,,,,,,,,0,2018-01-15T12:00:00.000-08:00,,,2019-01-01T12:00:01.000-08:00,2019-01-01T12:00:01.000-08:00,2018-02-03,2.0
1002,2,ai,,2,,,,1,a,,2018-02-02,2018-01-15,b,Rep2,,,,,,3,,,,,,,,,,,ai1,,,,No Action Taken,,,,,,,,,,,,,,,,,,,,,,,,2018-02-15T12:00:00.000-08:00,2018-02-15T12:00:00.000-08:00,,,,,,,,Target,,,,,,,,,,,,,0,2018-01-15T12:00:00.000-08:00,,,2019-01-01T12:00:01.000-08:00,2019-01-01T12:00:01.000-08:00,2018-02-02,2.0
1006,1,q,,1,,,,1,a,,2018-02-02,2018-01-15,f,Rep6,,,,,,3,,,,,,,,,,,q1,,,,Suggestions Completed,,,,,,,,,,,,,,,,,,,,,,,,2018-02-15T12:00:00.000-08:00,2018-02-15T12:00:00.000-08:00,,,,,,,,Target,,,,,,,,,,,,,1,2018-01-15T12:00:00.000-08:00,,,2019-01-01T12:00:01.000-08:00,2019-01-01T12:00:01.000-08:00,2018-02-01,2.0
1010,3,ad,,3,,,,1,a,,2018-02-03,2018-01-15,j,Rep10,,,,,,3,,,,,,,,,,,ad1,,,,Suggestions Completed,,,,,,,,,,,,,,,,,,,,,,,,2018-02-15T12:00:00.000-08:00,2018-02-15T12:00:00.000-08:00,,,,,,,,Trigger,,,,,,,,,,,,,1,2018-01-15T12:00:00.000-08:00,,,2019-01-01T12:00:01.000-08:00,2019-01-01T12:00:01.000-08:00,2018-02-03,2.0
1002,3,aj,,3,,,,1,a,,2018-02-03,2018-01-15,b,Rep2,,,,,,3,,,,,,,,,,,aj1,,,,Suggestions Dismissed,,,,,,,,,,,,,,,,,,,,,,,,2018-02-15T12:00:00.000-08:00,2018-02-15T12:00:00.000-08:00,,,,,,,,Trigger,,,,,,,,,,,,,0,2018-01-15T12:00:00.000-08:00,,,2019-01-01T12:00:01.000-08:00,2019-01-01T12:00:01.000-08:00,2018-02-03,2.0
1006,3,ar,,3,,,,1,a,,2018-02-01,2018-01-15,f,Rep6,,,,,,3,,,,,,,,,,,ar1,,,,Suggestions Dismissed,,,,,,,,,,,,,,,,,,,,,,,,2018-02-15T12:00:00.000-08:00,2018-02-15T12:00:00.000-08:00,,,,,,,,Trigger,,,,,,,,,,,,,0,2018-01-15T12:00:00.000-08:00,,,2019-01-01T12:00:01.000-08:00,2019-01-01T12:00:01.000-08:00,2018-02-03,2.0
1003,2,al,,2,,,,1,a,,2018-02-02,2018-01-15,c,Rep3,,,,,,3,,,,,,,,,,,al1,,,,Suggestions Dismissed,,,,,,,,,,,,,,,,,,,,,,,,2018-02-15T12:00:00.000-08:00,2018-02-15T12:00:00.000-08:00,,,,,,,,Trigger,,,,,,,,,,,,,0,2018-01-15T12:00:00.000-08:00,,,2019-01-01T12:00:01.000-08:00,2019-01-01T12:00:01.000-08:00,2018-02-02,2.0
1005,2,ap,,2,,,,1,a,,2018-02-01,2018-01-15,e,Rep5,,,,,,3,,,,,,,,,,,ap1,,,,Suggestions Dismissed,,,,,,,,,,,,,,,,,,,,,,,,2018-02-15T12:00:00.000-08:00,2018-02-15T12:00:00.000-08:00,,,,,,,,Target,,,,,,,,,,,,,0,2018-01-15T12:00:00.000-08:00,,,2019-01-01T12:00:01.000-08:00,2019-01-01T12:00:01.000-08:00,2018-02-02,2.0
1001,1,ae,,1,,,,1,a,,2018-02-01,2018-01-15,a,Rep1,,,,,,3,,,,,,,,,,,ae,,,,No Action Taken,,,,,,,,,,,,,,,,,,,,,,,,2018-02-15T12:00:00.000-08:00,2018-02-15T12:00:00.000-08:00,,,,,,,,Target,,,,,,,,,,,,,0,2018-01-15T12:00:00.000-08:00,,,2019-01-01T12:00:01.000-08:00,2019-01-01T12:00:01.000-08:00,2018-02-01,2.0
1008,1,v,,1,,,,1,a,,2018-02-01,2018-01-15,h,Rep8,,,,,,3,,,,,,,,,,,v1,,,,Suggestions Completed,,,,,,,,,,,,,,,,,,,,,,,,2018-02-15T12:00:00.000-08:00,2018-02-15T12:00:00.000-08:00,,,,,,,,Trigger,,,,,,,,,,,,,1,2018-01-15T12:00:00.000-08:00,,,2019-01-01T12:00:01.000-08:00,2019-01-01T12:00:01.000-08:00,2018-02-01,2.0
1009,1,y,,1,,,,1,a,,2018-02-02,2018-01-15,i,Rep9,,,,,,3,,,,,,,,,,,y1,,,,Suggestions Completed,,,,,,,,,,,,,,,,,,,,,,,,2018-02-15T12:00:00.000-08:00,2018-02-15T12:00:00.000-08:00,,,,,,,,Trigger,,,,,,,,,,,,,1,2018-01-15T12:00:00.000-08:00,,,2019-01-01T12:00:01.000-08:00,2019-01-01T12:00:01.000-08:00,2018-02-01,2.0
1008,2,w,,2,,,,1,a,,2018-02-02,2018-01-15,h,Rep8,,,,,,3,,,,,,,,,,,w1,,,,Suggestions Completed,,,,,,,,,,,,,,,,,,,,,,,,2018-02-15T12:00:00.000-08:00,2018-02-15T12:00:00.000-08:00,,,,,,,,Target,,,,,,,,,,,,,1,2018-01-15T12:00:00.000-08:00,,,2019-01-01T12:00:01.000-08:00,2019-01-01T12:00:01.000-08:00,2018-02-02,2.0
1007,2,u,,2,,,,1,a,,2018-02-03,2018-01-15,g,Rep7,,,,,,3,,,,,,,,,,,u1,,,,Suggestions Completed,,,,,,,,,,,,,,,,,,,,,,,,2018-02-15T12:00:00.000-08:00,2018-02-15T12:00:00.000-08:00,,,,,,,,Target,,,,,,,,,,,,,1,2018-01-15T12:00:00.000-08:00,,,2019-01-01T12:00:01.000-08:00,2019-01-01T12:00:01.000-08:00,2018-02-02,2.0
1001,2,af,,2,,,,1,a,,2018-02-02,2018-01-15,a,Rep1,,,,,,3,,,,,,,,,,,af1,,,,Suggestions Dismissed,,,,,,,,,,,,,,,,,,,,,,,,2018-02-15T12:00:00.000-08:00,2018-02-15T12:00:00.000-08:00,,,,,,,,Trigger,,,,,,,,,,,,,0,2018-01-15T12:00:00.000-08:00,,,2019-01-01T12:00:01.000-08:00,2019-01-01T12:00:01.000-08:00,2018-02-02,2.0
1004,1,l,,1,,,,1,a,,2018-02-03,2018-01-15,d,Rep4,,,,,,3,,,,,,,,,,,l1,,,,Suggestions Completed,,,,,,,,,,,,,,,,,,,,,,,,2018-02-15T12:00:00.000-08:00,2018-02-15T12:00:00.000-08:00,,,,,,,,Trigger,,,,,,,,,,,,,1,2018-01-15T12:00:00.000-08:00,,,2019-01-01T12:00:01.000-08:00,2019-01-01T12:00:01.000-08:00,2018-02-01,2.0
1007,3,as,,3,,,,1,a,,2018-02-01,2018-01-15,g,Rep7,,,,,,3,,,,,,,,,,,as1,,,,No Action Taken,,,,,,,,,,,,,,,,,,,,,,,,2018-02-15T12:00:00.000-08:00,2018-02-15T12:00:00.000-08:00,,,,,,,,Target,,,,,,,,,,,,,0,2018-01-15T12:00:00.000-08:00,,,2019-01-01T12:00:01.000-08:00,2019-01-01T12:00:01.000-08:00,2018-02-03,2.0
1006,2,r,,2,,,,1,a,,2018-02-03,2018-01-15,f,Rep6,,,,,,3,,,,,,,,,,,r1,,,,Suggestions Completed,,,,,,,,,,,,,,,,,,,,,,,,2018-02-15T12:00:00.000-08:00,2018-02-15T12:00:00.000-08:00,,,,,,,,Trigger,,,,,,,,,,,,,1,2018-01-15T12:00:00.000-08:00,,,2019-01-01T12:00:01.000-08:00,2019-01-01T12:00:01.000-08:00,2018-02-02,2.0
1004,2,an,,2,,,,1,a,,2018-02-01,2018-01-15,d,Rep4,,,,,,3,,,,,,,,,,,an1,,,,Suggestions Dismissed,,,,,,,,,,,,,,,,,,,,,,,,2018-02-15T12:00:00.000-08:00,2018-02-15T12:00:00.000-08:00,,,,,,,,Trigger,,,,,,,,,,,,,0,2018-01-15T12:00:00.000-08:00,,,2019-01-01T12:00:01.000-08:00,2019-01-01T12:00:01.000-08:00,2018-02-02,2.0
1009,3,aa,,3,,,,1,a,,2018-02-01,2018-01-15,i,Rep9,,,,,,3,,,,,,,,,,,aa1,,,,Suggestions Completed,,,,,,,,,,,,,,,,,,,,,,,,2018-02-15T12:00:00.000-08:00,2018-02-15T12:00:00.000-08:00,,,,,,,,Target,,,,,,,,,,,,,1,2018-01-15T12:00:00.000-08:00,,,2019-01-01T12:00:01.000-08:00,2019-01-01T12:00:01.000-08:00,2018-02-03,2.0
1010,1,ab,,1,,,,1,a,,2018-02-01,2018-01-15,j,Rep10,,,,,,3,,,,,,,,,,,ab1,,,,Suggestions Completed,,,,,,,,,,,,,,,,,,,,,,,,2018-02-15T12:00:00.000-08:00,2018-02-15T12:00:00.000-08:00,,,,,,,,Trigger,,,,,,,,,,,,,1,2018-01-15T12:00:00.000-08:00,,,2019-01-01T12:00:01.000-08:00,2019-01-01T12:00:01.000-08:00,2018-02-01,2.0
1005,1,o,,1,,,,1,a,,2018-02-03,2018-01-15,e,Rep5,,,,,,3,,,,,,,,,,,o1,,,,Suggestions Completed,,,,,,,,,,,,,,,,,,,,,,,,2018-02-15T12:00:00.000-08:00,2018-02-15T12:00:00.000-08:00,,,,,,,,Target,,,,,,,,,,,,,1,2018-01-15T12:00:00.000-08:00,,,2019-01-01T12:00:01.000-08:00,2019-01-01T12:00:01.000-08:00,2018-02-01,2.0
1007,1,t,,1,,,,1,a,,2018-02-02,2018-01-15,g,Rep7,,,,,,3,,,,,,,,,,,t1,,,,Suggestions Completed,,,,,,,,,,,,,,,,,,,,,,,,2018-02-15T12:00:00.000-08:00,2018-02-15T12:00:00.000-08:00,,,,,,,,Trigger,,,,,,,,,,,,,1,2018-01-15T12:00:00.000-08:00,,,2019-01-01T12:00:01.000-08:00,2019-01-01T12:00:01.000-08:00,2018-02-01,2.0
1005,3,aq,,3,,,,1,a,,2018-02-02,2018-01-15,e,Rep5,,,,,,3,,,,,,,,,,,aq1,,,,No Action Taken,,,,,,,,,,,,,,,,,,,,,,,,2018-02-15T12:00:00.000-08:00,2018-02-15T12:00:00.000-08:00,,,,,,,,Trigger,,,,,,,,,,,,,0,2018-01-15T12:00:00.000-08:00,,,2019-01-01T12:00:01.000-08:00,2019-01-01T12:00:01.000-08:00,2018-02-03,2.0
1003,1,ak,,1,,,,1,a,,2018-02-01,2018-01-15,c,Rep3,,,,,,3,,,,,,,,,,,ak1,,,,No Action Taken,,,,,,,,,,,,,,,,,,,,,,,,2018-02-15T12:00:00.000-08:00,2018-02-15T12:00:00.000-08:00,,,,,,,,Target,,,,,,,,,,,,,0,2018-01-15T12:00:00.000-08:00,,,2019-01-01T12:00:01.000-08:00,2019-01-01T12:00:01.000-08:00,2018-02-01,2.0
1009,2,z,,2,,,,1,a,,2018-02-03,2018-01-15,i,Rep9,,,,,,3,,,,,,,,,,,z1,,,,Suggestions Completed,,,,,,,,,,,,,,,,,,,,,,,,2018-02-15T12:00:00.000-08:00,2018-02-15T12:00:00.000-08:00,,,,,,,,Target,,,,,,,,,,,,,1,2018-01-15T12:00:00.000-08:00,,,2019-01-01T12:00:01.000-08:00,2019-01-01T12:00:01.000-08:00,2018-02-02,2.0
1008,3,x,,3,,,,1,a,,2018-02-03,2018-01-15,h,Rep8,,,,,,3,,,,,,,,,,,x1,,,,Suggestions Completed,,,,,,,,,,,,,,,,,,,,,,,,2018-02-15T12:00:00.000-08:00,2018-02-15T12:00:00.000-08:00,,,,,,,,Trigger,,,,,,,,,,,,,1,2018-01-15T12:00:00.000-08:00,,,2019-01-01T12:00:01.000-08:00,2019-01-01T12:00:01.000-08:00,2018-02-03,2.0
1004,3,ao,,3,,,,1,a,,2018-02-02,2018-01-15,d,Rep4,,,,,,3,,,,,,,,,,,ao1,,,,No Action Taken,,,,,,,,,,,,,,,,,,,,,,,,2018-02-15T12:00:00.000-08:00,2018-02-15T12:00:00.000-08:00,,,,,,,,Target,,,,,,,,,,,,,0,2018-01-15T12:00:00.000-08:00,,,2019-01-01T12:00:01.000-08:00,2019-01-01T12:00:01.000-08:00,2018-02-03,2.0
1010,2,ac,,2,,,,1,a,,2018-02-02,2018-01-15,j,Rep10,,,,,,3,,,,,,,,,,,ac1,,,,Suggestions Completed,,,,,,,,,,,,,,,,,,,,,,,,2018-02-15T12:00:00.000-08:00,2018-02-15T12:00:00.000-08:00,,,,,,,,Target,,,,,,,,,,,,,1,2018-01-15T12:00:00.000-08:00,,,2019-01-01T12:00:01.000-08:00,2019-01-01T12:00:01.000-08:00,2018-02-02,2.0
1003,3,am,,3,,,,1,a,,2018-02-03,2018-01-15,c,Rep3,,,,,,3,,,,,,,,,,,am1,,,,No Action Taken,,,,,,,,,,,,,,,,,,,,,,,,2018-02-15T12:00:00.000-08:00,2018-02-15T12:00:00.000-08:00,,,,,,,,Target,,,,,,,,,,,,,0,2018-01-15T12:00:00.000-08:00,,,2019-01-01T12:00:01.000-08:00,2019-01-01T12:00:01.000-08:00,2018-02-03,2.0
1002,1,ah,,1,,,,1,a,,2018-02-01,2018-01-15,b,Rep2,,,,,,3,,,,,,,,,,,ah1,,,,Suggestions Dismissed,,,,,,,,,,,,,,,,,,,,,,,,2018-02-15T12:00:00.000-08:00,2018-02-15T12:00:00.000-08:00,,,,,,,,Trigger,,,,,,,,,,,,,0,2018-01-15T12:00:00.000-08:00,,,2019-01-01T12:00:01.000-08:00,2019-01-01T12:00:01.000-08:00,2018-02-01,2.0
