fOwner_Profile_coe__c, Record_Created_DateTime__c, Discrepancy_Secs__c, Canceled_vod__c, Sync_Discrepancy_Duration_Delta__c, Number_of_Retries_vod__c, Number_of_Upload_Errors_vod__c, Number_of_Uploads_vod__c, Number_of_VTrans_vod__c, BackupCreatedDate, BackupModifiedDate
a1,REP_1,,,2018-02-01T12:00:01.000-08:00,,,,,,,,,,,,,1,2018-02-01T12:00:01.000-08:00,,,User_Full_Sync_vod,,,,,str,,,false,,,,,,,
a10,REP_10,,,2018-02-01T12:00:01.000-08:00,,,,,,,,,,,,,1,2018-02-01T12:00:01.000-08:00,,,User_Full_Sync_vod,,,,,str,,,false,,,,,,,
a2,REP_2,,,2018-02-01T12:00:01.000-08:00,,,,,,,,,,,,,1,2018-02-01T12:00:01.000-08:00,,,User_Full_Sync_vod,,,,,str,,,false,,,,,,,
a3,REP_3,,,2018-02-01T12:00:01.000-08:00,,,,,,,,,,,,,1,2018-02-01T12:00:01.000-08:00,,,User_Full_Sync_vod,,,,,str,,,false,,,,,,,
a4,REP_4,,,2018-02-01T12:00:01.000-08:00,,,,,,,,,,,,,1,2018-02-01T12:00:01.000-08:00,,,User_Full_Sync_vod,,,,,str,,,false,,,,,,,
a5,REP_5,,,2018-02-01T12:00:01.000-08:00,,,,,,,,,,,,,1,2018-02-01T12:00:01.000-08:00,,,User_Full_Sync_vod,,,,,str,,,false,,,,,,,
a6,REP_6,,,2018-02-01T12:00:01.000-08:00,,,,,,,,,,,,,1,2018-02-01T12:00:01.000-08:00,,,User_Full_Sync_vod,,,,,str,,,false,,,,,,,
a7,REP_7,,,2018-02-01T12:00:01.000-08:00,,,,,,,,,,,,,1,2018-02-01T12:00:01.000-08:00,,,User_Full_Sync_vod,,,,,str,,,false,,,,,,,
a8,REP_8,,,2018-02-01T12:00:01.000-08:00,,,,,,,,,,,,,1,2018-02-01T12:00:01.000-08:00,,,User_Full_Sync_vod,,,,,str,,,false,,,,,,,
a9,REP_9,,,2018-02-01T12:00:01.000-08:00,,,,,,,,,,,,,1,2018-02-01T12:00:01.000-08:00,,,User_Full_Sync_vod,,,,,str,,,false,,,,,,,
b1,REP_1,,,2018-02-02T12:00:01.000-08:00,,,,,,,,,,,,,1,2018-02-02T12:00:01.000-08:00,,,User_Full_Sync_vod,,,,,str,,,false,,,,,,,
b10,REP_10,,,2018-02-02T12:00:01.000-08:00,,,,,,,,,,,,,1,2018-02-02T12:00:01.000-08:00,,,User_Full_Sync_vod,,,,,str,,,false,,,,,,,
b2,REP_2,,,2018-02-02T12:00:01.000-08:00,,,,,,,,,,,,,1,2018-02-02T12:00:01.000-08:00,,,User_Full_Sync_vod,,,,,str,,,false,,,,,,,
b3,REP_3,,,2018-02-02T12:00:01.000-08:00,,,,,,,,,,,,,1,2018-02-02T12:00:01.000-08:00,,,User_Full_Sync_vod,,,,,str,,,false,,,,,,,
b4,REP_4,,,2018-02-02T12:00:01.000-08:00,,,,,,,,,,,,,1,2018-02-02T12:00:01.000-08:00,,,User_Full_Sync_vod,,,,,str,,,false,,,,,,,
b5,REP_5,,,2018-02-02T12:00:01.000-08:00,,,,,,,,,,,,,1,2018-02-02T12:00:01.000-08:00,,,User_Full_Sync_vod,,,,,str,,,false,,,,,,,
b6,REP_6,,,2018-02-02T12:00:01.000-08:00,,,,,,,,,,,,,1,2018-02-02T12:00:01.000-08:00,,,User_Full_Sync_vod,,,,,str,,,false,,,,,,,
b7,REP_7,,,2018-02-02T12:00:01.000-08:00,,,,,,,,,,,,,1,2018-02-02T12:00:01.000-08:00,,,User_Full_Sync_vod,,,,,str,,,false,,,,,,,
b8,REP_8,,,2018-02-02T12:00:01.000-08:00,,,,,,,,,,,,,1,2018-02-02T12:00:01.000-08:00,,,User_Full_Sync_vod,,,,,str,,,false,,,,,,,
b9,REP_9,,,2018-02-02T12:00:01.000-08:00,,,,,,,,,,,,,1,2018-02-02T12:00:01.000-08:00,,,User_Full_Sync_vod,,,,,str,,,false,,,,,,,
c1,REP_1,,,2018-02-03T12:00:01.000-08:00,,,,,,,,,,,,,1,2018-02-03T12:00:01.000-08:00,,,User_Full_Sync_vod,,,,,str,,,false,,,,,,,
c10,REP_10,,,2018-02-03T12:00:01.000-08:00,,,,,,,,,,,,,1,2018-02-03T12:00:01.000-08:00,,,User_Full_Sync_vod,,,,,str,,,false,,,,,,,
c2,REP_2,,,2018-02-03T12:00:01.000-08:00,,,,,,,,,,,,,1,2018-02-03T12:00:01.000-08:00,,,User_Full_Sync_vod,,,,,str,,,false,,,,,,,
c3,REP_3,,,2018-02-03T12:00:01.000-08:00,,,,,,,,,,,,,1,2018-02-03T12:00:01.000-08:00,,,User_Full_Sync_vod,,,,,str,,,false,,,,,,,
c4,REP_4,,,2018-02-03T12:00:01.000-08:00,,,,,,,,,,,,,1,2018-02-03T12:00:01.000-08:00,,,User_Full_Sync_vod,,,,,str,,,false,,,,,,,
c5,REP_5,,,2018-02-03T12:00:01.000-08:00,,,,,,,,,,,,,1,2018-02-03T12:00:01.000-08:00,,,User_Full_Sync_vod,,,,,str,,,false,,,,,,,
c6,REP_6,,,2018-02-03T12:00:01.000-08:00,,,,,,,,,,,,,1,2018-02-03T12:00:01.000-08:00,,,User_Full_Sync_vod,,,,,str,,,false,,,,,,,
c7,REP_7,,,2018-02-03T12:00:01.000-08:00,,,,,,,,,,,,,1,2018-02-03T12:00:01.000-08:00,,,User_Full_Sync_vod,,,,,str,,,false,,,,,,,
c8,REP_8,,,2018-02-03T12:00:01.000-08:00,,,,,,,,,,,,,1,2018-02-03T12:00:01.000-08:00,,,User_Full_Sync_vod,,,,,str,,,false,,,,,,,
c9,REP_9,,,2018-02-03T12:00:01.000-08:00,,,,,,,,,,,,,1,2018-02-03T12:00:01.000-08:00,,,User_Full_Sync_vod,,,,,str,,,false,,,,,,,
