messageUID,productUID,documentDescription,emailSubject,emailTopicId,emailTopicName
a00A000000mgLAGT20,a00A0000000quNwIAI,LYRICA New Message AGGRESSIVE GREATER THAN 20 Interactions,{{customText [Thank you for your time today|A follow up to our discussion|A follow up to our talk about wound closure|A follow up to our talk about topical skin adhesives]}},1,Lyrica A Follow Talk
a00A000000mgLALT20,a00A0000000quNwIAI,LYRICA New Message AGGRESSIVE LESS THAN 20 Interactions,{{customText [Thank you for your time today|A follow up to our discussion|A follow up to our talk about wound closure|A follow up to our talk about topical skin adhesives]}},1,Lyrica A Follow Talk
a00A000000mgLANOIN,a00A0000000quNwIAI,LYRICA New Message AGGRESSIVE WITHOUT Interactions,{{customText [Thank you for your time today|A follow up to our discussion|A follow up to our talk about wound closure|A follow up to our talk about topical skin adhesives]}},1,Lyrica A Follow Talk
a00A000000mgLCGT20,a00A0000000quNwIAI,LYRICA New Message CONSERVATIVE GREATER THAN 20 Interactions,{{customText [Thank you for your time today|A follow up to our discussion|A follow up to our talk about wound closure|A follow up to our talk about topical skin adhesives]}},1,Lyrica A Follow Talk
a00A000000mgLCLT20,a00A0000000quNwIAI,LYRICA New Message CONSERVATIVE LESS THAN 20 Interactions,{{customText [Thank you for your time today|A follow up to our discussion|A follow up to our talk about wound closure|A follow up to our talk about topical skin adhesives]}},1,Lyrica A Follow Talk
a00A000000mgLCNOIN,a00A0000000quNwIAI,LYRICA New Message CONSERVATIVE WITHOUT Interactions,{{customText [Thank you for your time today|A follow up to our discussion|A follow up to our talk about wound closure|A follow up to our talk about topical skin adhesives]}},1,Lyrica A Follow Talk
a00A000000mgLMGT20,a00A0000000quNwIAI,LYRICA New Message MODERATE GREATER THAN 20 Interactions,{{customText [Thank you for your time today|A follow up to our discussion|A follow up to our talk about wound closure|A follow up to our talk about topical skin adhesives]}},1,Lyrica A Follow Talk
a00A000000mgLMLT20,a00A0000000quNwIAI,LYRICA New Message MODERATE LESS THAN 20 Interactions,{{customText [Thank you for your time today|A follow up to our discussion|A follow up to our talk about wound closure|A follow up to our talk about topical skin adhesives]}},1,Lyrica A Follow Talk
a00A000000mgLMNOIN,a00A0000000quNwIAI,LYRICA New Message MODERATE WITHOUT Interactions,{{customText [Thank you for your time today|A follow up to our discussion|A follow up to our talk about wound closure|A follow up to our talk about topical skin adhesives]}},1,Lyrica A Follow Talk
a3RA00000001MxcMAE,a00A0000000quNwIAI,AAN Guidelines RTE,The only Level A Rx option for painful DPN,2,Lyrica Option The Dpn
a3RA00000001MxhMAE,a00A0000000quNwIAI,FM Arnold with Cost and Coverage RTE,View pivotal data results on an Rx option for fibromyalgia,3,Lyrica Pivotal View Cost
a3RA00000001MxmMAE,a00A0000000quNwIAI,DPN Rosenstock and SHIFT RTE,Discover an Rx option to help reduce diabetic nerve pain,4,Lyrica Nerve Help Rosenstock
a3RA00000001MxrMAE,a00A0000000quNwIAI,DPN Rosenstock with Cost and Coverage RTE,Explore pivotal study results of a diabetic nerve pain Rx option,5,Lyrica Pivotal Nerve Rosenstock
a3RA00000001MxwMAE,a00A0000000quNwIAI,FM Crofford RTE,View pivotal data results on an Rx option for fibromyalgia,6,Lyrica Pivotal View Rx
a3RA00000001My1MAE,a00A0000000quNwIAI,FM Crofford and Crossover RTE,A resource to support your fibromyalgia Rx decision,7,Lyrica Support Rx Crofford
a3RA00000001My6MAE,a00A0000000quNwIAI,Cross Indications RTE,Do your patients suffer from one of these 4 chronic conditions?,8,Lyrica Cross Conditions Suffer
a3RA00000001QiNMAU,a00A0000000quNwIAI,LYRICA FM Dosing RTE,Consider titration based on efficacy and tolerability,10,Lyrica Titration Consider Tolerability
a3RA00000001QiQMAU,a00A0000000quNwIAI,LYRICA DPN Dosing RTE,Consider titration based on efficacy and tolerability,10,Lyrica Titration Consider Tolerability
a3RA00000001QihMAE,a00A0000000quNwIAI,Why LYRICA RTE,Follow-up resource from our discussion,9,Lyrica Discussion Resource Follow-Up
a3RA00000001QimMAE,a00A0000000quNwIAI,Formulary Pro RTE,Follow-up resource from our discussion,9,Lyrica Discussion Resource Follow-Up
a3RA00000001QirMAE,a00A0000000quNwIAI,Co-pay Card RTE,Follow-up resource from our discussion,9,Lyrica Discussion Resource Follow-Up
a3RA00000006kGXMAY,a00A0000000quNwIAI,AAN Guideline Rep-triggered e-mail,An Additional Resource I Think You'll Like,11,Lyrica Additional Like An
a3RA0000000EB9bMAG,a00A0000000quNwIAI,Why LYRICA- Resource on PFP.com,PfizerFormularyPro.com: Find LYRICA® (pregabalin) Capsules CV formulary information for your patients,19,Lyrica Com Information Pfp
a3RA0000000EB9dMAG,a00A0000000quNwIAI,FM Management Rep-triggered e-mail,Follow-up Resource From Our Discussion,16,Lyrica Our Discussion From 3
a3RA0000000HFcmMAG,a00A0000000quNwIAI,LYRICA: 10 Minute Clinical Foot Exam Video,Follow-up resource from our discussion,17,Lyrica Discussion Follow-Up Foot
a3RA0000000HFcqMAG,a00A0000000quNwIAI,LYRICA: Proven efficacy in the management of 4 painful conditions,Follow-up resource from our discussion,20,Lyrica  Conditions Discussion
a3RA0000000HFcrMAG,a00A0000000quNwIAI,LYRICA: Crofford and Crossover Study,Follow-up resource from our discussion,9,Lyrica Discussion Resource Follow-Up
a3RA0000000HHeNMAW,a00A0000000quNwIAI,Lyrica Cost and Coverage,Follow-up resource from our discussion,21,Lyrica Cost Discussion Coverage
a3RA0000000HHeOMAW,a00A0000000quNwIAI,DPN Remote WebEx Speaker Presentation Invitation,Join us for an Informational WebEx with Dr. Cassandra Curtis,22,Lyrica Webex Curtis Cassandra
a3RA0000000HO7sMAG,a00A0000000quNwIAI,Step On Up™ Rep Triggered Email,FollowUp Resource From Our Discussion,15,Lyrica Our Discussion Email
a3RA0000000HO9jMAG,a00A0000000quNwIAI,Lyrica FM Management,FollowUp Resource From Our Discussion,9,Lyrica Discussion Resource Follow-Up
a3RA0000000HO9oMAG,a00A0000000quNwIAI,Lyrica 4 Indications,FollowUp Resource From Our Discussion,9,Lyrica Discussion Resource Follow-Up
a3RA0000000HO9tMAG,a00A0000000quNwIAI,Lyrica Cost and Coverage,FollowUp Resource From Our Discussion,21,Lyrica Cost Discussion Coverage
a3RA0000000HR2FMAW,a00A0000000quNwIAI,Painful DPN Efficacy Rep-triggered e-mail,Follow-up Resource From Our Discussion,12,Lyrica Our Discussion From 1
a3RA0000000HR2PMAW,a00A0000000quNwIAI,LYRICA.com en Espanol Rep Triggered Email,Follow-up Resource From Our Discussion,15,Lyrica Our Discussion Email
a3RA0000000HR50MAG,a00A0000000quNwIAI,AAN Guideline Rep-triggered e-mail,An Additional Resource I Think You'll Like,11,Lyrica Additional Like An
a3RA0000000Hye7MAC,a00A0000000quNwIAI,DPN Rosenstock and SHIFT RTE,Discover an Rx option to help reduce diabetic nerve pain,4,Lyrica Nerve Help Rosenstock
a3RA0000000Hye8MAC,a00A0000000quNwIAI,Cross Indications RTE,Do your patients suffer from one of these 4 chronic conditions?,8,Lyrica Cross Conditions Suffer
a3RA0000000Hye9MAC,a00A0000000quNwIAI,FM Crofford and Crossover RTE,A resource to support your fibromyalgia Rx decision,7,Lyrica Support Rx Crofford
a3RA0000000HyeAMAS,a00A0000000quNwIAI,DPN Rosenstock with Cost and Coverage RTE,Explore pivotal study results of a diabetic nerve pain Rx option,5,Lyrica Pivotal Nerve Rosenstock
a3RA0000000HyeBMAS,a00A0000000quNwIAI,FM Crofford RTE,View pivotal data results on an Rx option for fibromyalgia,6,Lyrica Pivotal View Rx
a3RA0000000HyeCMAS,a00A0000000quNwIAI,FM Arnold with Cost and Coverage RTE,View pivotal data results on an Rx option for fibromyalgia,3,Lyrica Pivotal View Cost
a3RA0000000MftcMAC,a00A0000000quNwIAI,FM Efficacy and Comorbid Depression Rep-triggered e-mail,Another resource I think you'll enjoy,23,Lyrica Another Enjoy You'Ll
a3RA0000000MftgMAC,a00A0000000quNwIAI,PFP.com RTE ONLY for HCPs with less-than-favorable access,We've updated the Pfizer FormularyPro website,24,Lyrica Hcps Com Updated
a3RA0000000MfuMMAS,a00A0000000quNwIAI,FM Efficacy plus Cost and Coverage RTE,Access to an FM Rx treatment option may be easier than you think,25,Lyrica Cost Rx Think
a3RA0000000MfuNMAS,a00A0000000quNwIAI,pDPN Efficacy plus Cost and Coverage RTE,Access to a pDPN Rx treatment option may be easier than you think,25,Lyrica Cost Rx Think
a3RA0000000MfuOMAS,a00A0000000quNwIAI,FM Efficacy and Function Rep-triggered e-mail,Another resource I think you'll enjoy,23,Lyrica Another Enjoy You'Ll
a3RA0000000Mg36MAC,a00A0000000quNwIAI,LYRICA Diabetic Foot Exam Tips,Follow-up resource from our discussion,17,Lyrica Discussion Follow-Up Foot
a3RA0000000Mg38MAC,a00A0000000quNwIAI,LYRICA.com en Espanol Rep Triggered Email,Follow-up Resource From Our Discussion,15,Lyrica Our Discussion Email
a3RA0000000Mg39MAC,a00A0000000quNwIAI,4 Indications Rep-triggered e-mail,Follow-up Resource From Our Discussion,13,Lyrica Our Discussion From 2
a3RA0000000MgJtMAK,a00A0000000quNwIAI,pDPN dosing reminder RTE,Consider titration based on efficacy and tolerability,10,Lyrica Titration Consider Tolerability
a3RA0000000MgJuMAK,a00A0000000quNwIAI,FM Dosing Reminder RTE,Consider titration based on efficacy and tolerability,10,Lyrica Titration Consider Tolerability
a3RA0000000MgJvMAK,a00A0000000quNwIAI,Cost and Coverage Rep-triggered e-mail,Follow-up Resource From Our Discussion,14,Lyrica Our Cost From
a3RA0000000U0TOMA0,a00A0000000quNwIAI,4 Painful Indications Rep-triggered e-mail,Consider this Rx treatment option for the management of 4 conditions,27,Lyrica 4 Indications Conditions
a3RA0000000U0TTMA0,a00A0000000quNwIAI,4 Painful Indications Rep-triggered e-mail,Consider this Rx treatment option for the management of 4 conditions,27,Lyrica 4 Indications Conditions
a3RA0000000U0TYMA0,a00A0000000quNwIAI,LYRICA FM Powerful and Improved Function RTE,Results from a pivotal study for an FM Rx treatment option,28,Lyrica Fm  Rx
a3RA0000000U0TdMAK,a00A0000000quNwIAI,Lyrica pDPN 50 percent or more Efficacy Rep-triggered e-mail,Discover an Rx treatment option for your patients with painful DPN,26,Lyrica  50 Rx
a3RA0000000U0V0MAK,a00A0000000quNwIAI,Cost and Coverage RTE,"""Follow-up Resource From Our Discussion""",21,Lyrica Cost Discussion Coverage
a3RA0000000U0VFMA0,a00A0000000quNwIAI,FM MOA Video Rep-triggered e-mail,"""An additional resource I think you'll like""",18,Lyrica You'Ll Like Think
a3RA0000000U0VLMA0,a00A0000000quNwIAI,DPN Efficacy and Shift Rep-triggered e-mail,Clinical information to consider for a diabetic nerve pain Rx option,29,Lyrica Information Nerve Rx
a3RA0000000U0VPMA0,a00A0000000quNwIAI,LYRICA FM Updated Sustained and Improved Function RTE,"""Important clinical information to consider for a fibromyalgia Rx treatment option""",28,Lyrica Fm  Rx
a3RA0000000e0v7MAA,a00A0000000quNwIAI,Painful DPN Efficacy Rep-triggered e-mail,Follow-up Resource From Our Discussion,12,Lyrica Our Discussion From 1
a3RA0000000e0v8MAA,a00A0000000quNwIAI,4 Indications Rep-triggered e-mail,Follow-up Resource From Our Discussion,13,Lyrica Our Discussion From 2
a3RA0000000e0v9MAA,a00A0000000quNwIAI,Cost & Coverage Rep-triggered e-mail,Follow-up Resource From Our Discussion,14,Lyrica Our Cost From
a3RA0000000e0vAMAQ,a00A0000000quNwIAI,LYRICA.com en Espanol Rep Triggered Email,Follow-up Resource From Our Discussion,15,Lyrica Our Discussion Email
a3RA0000000e0vBMAQ,a00A0000000quNwIAI,FM Management Rep-triggered e-mail,Follow-up Resource From Our Discussion,16,Lyrica Our Discussion From 3
a3RA0000000e0vUMAQ,a00A0000000quNwIAI,LYRICA Diabetic Foot Exam Tips,Follow-up resource from our discussion,17,Lyrica Discussion Follow-Up Foot
a3RA0000000e0w0MAA,a00A0000000quNwIAI,AAN Guideline Rep-triggered e-mail,An Additional Resource I Think You'll Like,11,Lyrica Additional Like An
a3RA0000000e47HMAQ,a00A0000000quNwIAI,4 Indications Rep-triggered e-mail,Follow-up Resource From Our Discussion,13,Lyrica Our Discussion From 2
a3RA0000000e47IMAQ,a00A0000000quNwIAI,AAN Guideline Rep-triggered e-mail,An Additional Resource I Think You'll Like,11,Lyrica Additional Like An
a3RA0000000e47JMAQ,a00A0000000quNwIAI,Painful DPN Efficacy Rep-triggered e-mail,Follow-up Resource From Our Discussion,12,Lyrica Our Discussion From 1
a3RA0000000e47KMAQ,a00A0000000quNwIAI,FM Management Rep-triggered e-mail,Follow-up Resource From Our Discussion,16,Lyrica Our Discussion From 3
a3RA0000000e47LMAQ,a00A0000000quNwIAI,Cost & Coverage Rep-triggered e-mail,Follow-up Resource From Our Discussion,14,Lyrica Our Cost From
a3RA0000000e47MMAQ,a00A0000000quNwIAI,LYRICA.com en Espanol Rep Triggered Email,Follow-up Resource From Our Discussion,15,Lyrica Our Discussion Email
a3RA0000000e47NMAQ,a00A0000000quNwIAI,LYRICA Diabetic Foot Exam Tips,Follow-up resource from our discussion,17,Lyrica Discussion Follow-Up Foot
a3RA0000000e49aMAA,a00A0000000quNwIAI,FM MOA Video Rep-triggered e-mail,An additional resource I think you'll like,18,Lyrica You'Ll Like Think
a00A000000mgCAGT20,a00A0000000quNsIAI,CHANTIX New Message AGGRESSIVE GREATER THAN 20 Interactions,{{customText [Thank you for your time today|A follow up to our discussion|A follow up to our talk about wound closure|A follow up to our talk about topical skin adhesives]}},1,Chantix A Follow Talk
a00A000000mgCALT20,a00A0000000quNsIAI,CHANTIX New Message AGGRESSIVE LESS THAN 20 Interactions,{{customText [Thank you for your time today|A follow up to our discussion|A follow up to our talk about wound closure|A follow up to our talk about topical skin adhesives]}},1,Chantix A Follow Talk
a00A000000mgCANOIN,a00A0000000quNsIAI,CHANTIX New Message AGGRESSIVE WITHOUT Interactions,{{customText [Thank you for your time today|A follow up to our discussion|A follow up to our talk about wound closure|A follow up to our talk about topical skin adhesives]}},1,Chantix A Follow Talk
a00A000000mgCCGT20,a00A0000000quNsIAI,CHANTIX New Message CONSERVATIVE GREATER THAN 20 Interactions,{{customText [Thank you for your time today|A follow up to our discussion|A follow up to our talk about wound closure|A follow up to our talk about topical skin adhesives]}},1,Chantix A Follow Talk
a00A000000mgCCLT20,a00A0000000quNsIAI,CHANTIX New Message CONSERVATIVE LESS THAN 20 Interactions,{{customText [Thank you for your time today|A follow up to our discussion|A follow up to our talk about wound closure|A follow up to our talk about topical skin adhesives]}},1,Chantix A Follow Talk
a00A000000mgCCNOI2,a00A0000000quNsIAI,CHANTIX New Message CONSERVATIVE WITHOUT Interactions2,{{customText [Thank you for your time today|A follow up to our discussion|A follow up to our talk about wound closure|A follow up to our talk about topical skin adhesives]}},1,Chantix A Follow Talk
a00A000000mgCCNOI3,a00A0000000quNsIAI,CHANTIX New Message CONSERVATIVE WITHOUT Interactions3,{{customText [Thank you for your time today|A follow up to our discussion|A follow up to our talk about wound closure|A follow up to our talk about topical skin adhesives]}},1,Chantix A Follow Talk
a00A000000mgCCNOIN,a00A0000000quNsIAI,CHANTIX New Message CONSERVATIVE WITHOUT Interactions,{{customText [Thank you for your time today|A follow up to our discussion|A follow up to our talk about wound closure|A follow up to our talk about topical skin adhesives]}},1,Chantix A Follow Talk
a00A000000mgCMGT20,a00A0000000quNsIAI,CHANTIX New Message MODERATE GREATER THAN 20 Interactions,{{customText [Thank you for your time today|A follow up to our discussion|A follow up to our talk about wound closure|A follow up to our talk about topical skin adhesives]}},1,Chantix A Follow Talk
a00A000000mgCMLT20,a00A0000000quNsIAI,CHANTIX New Message MODERATE LESS THAN 20 Interactions,{{customText [Thank you for your time today|A follow up to our discussion|A follow up to our talk about wound closure|A follow up to our talk about topical skin adhesives]}},1,Chantix A Follow Talk
a00A000000mgCMNOIN,a00A0000000quNsIAI,CHANTIX New Message MODERATE WITHOUT Interactions,{{customText [Thank you for your time today|A follow up to our discussion|A follow up to our talk about wound closure|A follow up to our talk about topical skin adhesives]}},1,Chantix A Follow Talk
a00A000000mgCONSE2,a00A0000000quNsIAI,Chantix Srini Brand New Message Entry Conservative Test,{{customText [Thank you for your time today|A follow up to our discussion|A follow up to our talk about wound closure|A follow up to our talk about topical skin adhesives]}},1,Chantix A Follow Talk
a00A000000mgCONSER,a00A0000000quNsIAI,Chantix Srini New Message Entry Conservative Test,{{customText [Thank you for your time today|A follow up to our discussion|A follow up to our talk about wound closure|A follow up to our talk about topical skin adhesives]}},1,Chantix A Follow Talk
a00A000000mgMSRINI,a00A0000000quNsIAI,Srini Brand New Message Entry Test: No Interactions and Events,{{customText [Thank you for your time today|A follow up to our discussion|A follow up to our talk about wound closure|A follow up to our talk about topical skin adhesives]}},1,Chantix A Follow Talk
a3RA00000001MtAMAU,a00A0000000quNsIAI,Kentucky RTE,Increased coverage to help adults in Kentucky who want to quit smoking,2,Chantix Quit Help Smoking
a3RA0000000HDR6MAO,a00A0000000quNsIAI,Chantix: Pfizer Medical Discusses Flex Quit Date,Follow-up resource from our discussion,12,Chantix Discussion Follow-Up Resource
a3RA0000000HDR8MAO,a00A0000000quNsIAI,Chantix Meaningful Use,Review enclosed follow up that you requested,8,Chantix Enclosed Follow Requested
a3RA0000000HDR9MAO,a00A0000000quNsIAI,Chantix Flex Quit Date,Review enclosed follow up that you requested,8,Chantix Enclosed Follow Requested
a3RA0000000HDRAMA4,a00A0000000quNsIAI,Chantix: Welcome Kit & Savings Offer description with Link to Order,Follow-up resource from our discussion,7,Chantix Discussion Kit Follow-Up
a3RA0000000HEKIMA4,a00A0000000quNsIAI,Chantix Digital Offering RTE - Welcome Kit,Follow-up resource from our discussion,12,Chantix Discussion Follow-Up Resource
a3RA0000000HEKJMA4,a00A0000000quNsIAI,Chantix Digital Offering RTE - Pfizer Medical Videos,Follow-up resource from our discussion,12,Chantix Discussion Follow-Up Resource
a3RA0000000HEolMAG,a00A0000000quNsIAI,Chantix Digital Offering RTE - Patient Counseling/Education Videos,Follow-up resource from our discussion,12,Chantix Discussion Follow-Up Resource
a3RA0000000HFLbMAO,a00A0000000quNsIAI,Chantix: Flexible Quit Information and Link to eDetail,Review enclosed follow up that you requested,8,Chantix Enclosed Follow Requested
a3RA0000000HFLcMAO,a00A0000000quNsIAI,Chantix: Meaningful Use and EHR Email,Review enclosed follow up that you requested,8,Chantix Enclosed Follow Requested
a3RA0000000HGMKMA4,a00A0000000quNsIAI,Chantix.com Overview RTE,Additional clinical data you requested,13,Chantix Requested Clinical Data
a3RA0000000HGMLMA4,a00A0000000quNsIAI,Chantix Retreatment RTE,Additional clinical data you requested,13,Chantix Requested Clinical Data
a3RA0000000HGMMMA4,a00A0000000quNsIAI,Chantix Welcome Kit/SampleMD RTE,Additional clinical data you requested,13,Chantix Requested Clinical Data
a3RA0000000HGMPMA4,a00A0000000quNsIAI,Chantix Welcome Kit/SampleMD RTE,Follow-up resource from our discussion,7,Chantix Discussion Kit Follow-Up
a3RA0000000HGg8MAG,a00A0000000quNsIAI,CHX Digital Offering RTE - Pfizer Medical Videos,Additional clinical data you requested,13,Chantix Requested Clinical Data
a3RA0000000HGg9MAG,a00A0000000quNsIAI,CHX Digital Offering RTE - Chantix.com,Additional clinical data you requested,13,Chantix Requested Clinical Data
a3RA0000000HGgAMAW,a00A0000000quNsIAI,CHX Digital Offering RTE - Flex Quit Date,Additional clinical data you requested,13,Chantix Requested Clinical Data
a3RA0000000HGgDMAW,a00A0000000quNsIAI,CHX Digital Offering RTE - Patient Counseling/Education,Additional clinical data you requested,13,Chantix Requested Clinical Data
a3RA0000000HGgIMAW,a00A0000000quNsIAI,CHX Digital Offering RTE - Welcome Kit,Additional clinical data you requested,13,Chantix Requested Clinical Data
a3RA0000000HGgJMAW,a00A0000000quNsIAI,CHX Digital Offering RTE - Meaningful Use,Additional clinical data you requested,13,Chantix Requested Clinical Data
a3RA0000000HGgKMAW,a00A0000000quNsIAI,CHX Digital Offering RTE - Pfizer Medical Videos,Additional clinical data you requested,13,Chantix Requested Clinical Data
a3RA0000000HHeIMAW,a00A0000000quNsIAI,Reactive e-Cigarette email,Follow-up to our e-cigarette discussion,10,Chantix E-Cigarette Follow-Up Discussion
a3RA0000000HIbrMAG,a00A0000000quNsIAI,NPS Label Update RTE,Follow-up information on FDA labeling update,11,Chantix Update Label Information
a3RA0000000HNz6MAG,a00A0000000quNsIAI,Meaningful Use RTE,Review enclosed follow up that you requested,8,Chantix Enclosed Follow Requested
a3RA0000000HNz7MAG,a00A0000000quNsIAI,Retreatment RTE,View information on retreatment for smokers,9,Chantix Retreatment Information View
a3RA0000000HNzBMAW,a00A0000000quNsIAI,Chantix Welcome Kit RTE,Follow-up patient savings resource from our discussion,7,Chantix Discussion Kit Follow-Up
a3RA0000000HNzGMAW,a00A0000000quNsIAI,Flex Quit RTE,Review enclosed follow up that you requested,8,Chantix Enclosed Follow Requested
a3RA0000000HNzLMAW,a00A0000000quNsIAI,e-Cigarette RTE,Follow-up to our e-cigarette discussion,10,Chantix E-Cigarette Follow-Up Discussion
a3RA0000000HNzMMAW,a00A0000000quNsIAI,Chantix.com RTE,Review enclosed follow up that you requested,8,Chantix Enclosed Follow Requested
a3RA0000000HO6iMAG,a00A0000000quNsIAI,Chantix MDD RTE,New efficacy and safety data from our discussion,12,Chantix Discussion Follow-Up Resource
a3RA0000000MfthMAC,a00A0000000quNsIAI,CHANTIX Dosing RTE,Follow-up: inform and prepare patients on smoking cessation therapy,14,Chantix Smoking Cessation Therapy
a3RA0000000Mfu2MAC,a00A0000000quNsIAI,CHANTIX Flex Quit  RTE,Follow up: help smokers quit,15,Chantix Quit Help Flex 2
a3RA0000000Mfu3MAC,a00A0000000quNsIAI,CHANTIX NPS RTE,Follow-up: safety data on a smoking cessation treatment,16,Chantix Cessation Nps Smoking
a3RA0000000MfuCMAS,a00A0000000quNsIAI,CHANTIX Get Quit RTE,Follow-up: patient support during SC treatment,17,Chantix Patient Support Sc
a3RA0000000Mg37MAC,a00A0000000quNsIAI,CHANTIX MDD RTE,Follow-up: help smokers to quit,4,Chantix Help Follow-Up Quit
a3RA0000000Mg3CMAS,a00A0000000quNsIAI,CHANTIX Retreatment RTE,"""Follow-up: support smokers trying to quit again""",18,Chantix  Retreatment Follow-Up
a3RA0000000Mg3HMAS,a00A0000000quNsIAI,CHANTIX NPS RTE,Follow-up: safety data on a smoking cessation treatment,16,Chantix Cessation Nps Smoking
a3RA0000000Mg3IMAS,a00A0000000quNsIAI,CHANTIX Dosing RTE,Follow-up: inform and prepare patients on smoking cessation therapy,14,Chantix Smoking Cessation Therapy
a3RA0000000Mg3JMAS,a00A0000000quNsIAI,CHANTIX Retreatment RTE,"""Follow-up: support smokers trying to quit again""",18,Chantix  Retreatment Follow-Up
a3RA0000000Mg3KMAS,a00A0000000quNsIAI,CHANTIX Get Quit RTE,Follow-up: patient support during SC treatment,17,Chantix Patient Support Sc
a3RA0000000Mg3LMAS,a00A0000000quNsIAI,CHANTIX Flex Quit RTE,Follow up: help smokers quit,15,Chantix Quit Help Flex 2
a3RA0000000Mg3MMAS,a00A0000000quNsIAI,CHANTIX MDD RTE,Follow-up: help smokers to quit,4,Chantix Help Follow-Up Quit
a3RA0000000U0UCMA0,a00A0000000quNsIAI,Chantix MOA RTE,"""{{customText [Follow-up: a non-nicotine smoking cessation therapy|A non-nicotine smoking cessation therapy]}}""",14,Chantix Smoking Cessation Therapy
a3RA0000000U0UDMA0,a00A0000000quNsIAI,Gradual Quit Approach RTE,"""{{customText [Follow-up: a gradual approach to quitting smoking|A gradual approach to quitting smoking]}}""",2,Chantix Quit Help Smoking
a3RA0000000U0UEMA0,a00A0000000quNsIAI,Get Quit RTE,"""{{customText [Follow-up: patient support during SC treatment|Patient support during SC treatment]}}""",17,Chantix Patient Support Sc
a3RA0000000U0UHMA0,a00A0000000quNsIAI,Staying Quit RTE,"""{{customText [Follow-up: help patients STAY QUIT|Help patients STAY QUIT]}}""",2,Chantix Quit Help Smoking
a3RA0000000U4BHMA0,a00A0000000quNsIAI,EAGLES RTE,"""CHANTIX (R) (varenicline) LABEL UPDATE """,11,Chantix Update Label Information
a3RA0000000e0taMAA,a00A0000000quNsIAI,Chantix Flex Quit RTE,Follow-up: help smokers quit,3,Chantix Quit Help Flex 1
a3RA0000000e0u4MAA,a00A0000000quNsIAI,Chantix MDD RTE,Follow-up: help smokers to quit,4,Chantix Help Follow-Up Quit
a3RA0000000e0u5MAA,a00A0000000quNsIAI,Chantix Side Effects RTE,Follow-up: help inform patients about a smoking cessation treatment,5,Chantix Help Cessation Side
a3RA0000000e0uGMAQ,a00A0000000quNsIAI,Chantix Benefits of Quitting RTE,Follow-up: encourage smokers to quit at every visit,6,Chantix Benefits Encourage Follow-Up
a3RA0000000e0vJMAQ,a00A0000000quNsIAI,Chantix Welcome Kit RTE,Follow-up patient savings resource from our discussion,7,Chantix Discussion Kit Follow-Up
a3RA0000000e0vLMAQ,a00A0000000quNsIAI,Chantix.com RTE,Review enclosed follow up that you requested,8,Chantix Enclosed Follow Requested
a3RA0000000e0vMMAQ,a00A0000000quNsIAI,Retreatment RTE,View information on retreatment for smokers,9,Chantix Retreatment Information View
a3RA0000000e0vNMAQ,a00A0000000quNsIAI,e-Cigarette RTE,Follow-up to our e-cigarette discussion,10,Chantix E-Cigarette Follow-Up Discussion
a3RA0000000e0vOMAQ,a00A0000000quNsIAI,Meaningful Use RTE,Review enclosed follow up that you requested,8,Chantix Enclosed Follow Requested
a3RA0000000e0vPMAQ,a00A0000000quNsIAI,NPS Label Update RTE,Follow-up information on FDA labeling update,11,Chantix Update Label Information
a3RA0000000e0w8MAA,a00A0000000quNsIAI,Flex Quit RTE,Follow-up: help smokers quit,3,Chantix Quit Help Flex 1
a3RA0000000e0w9MAA,a00A0000000quNsIAI,Chantix Benefits of Quitting RTE,Follow-up: encourage smokers to quit at every visit,6,Chantix Benefits Encourage Follow-Up
a3RA0000000e0wAMAQ,a00A0000000quNsIAI,Chantix MDD RTE,Follow-up: help smokers to quit,4,Chantix Help Follow-Up Quit
a3RA0000000e0wBMAQ,a00A0000000quNsIAI,Chantix Side Effects RTE,Follow-up: help inform patients about a smoking cessation treatment,5,Chantix Help Cessation Side
a3RA0000000e47fMAA,a00A0000000quNsIAI,Flex Quit RTE,Follow-up: help smokers quit,3,Chantix Quit Help Flex 1
a3RA0000000e47gMAA,a00A0000000quNsIAI,NPS Label Update RTE,Follow-up information on FDA labeling update,11,Chantix Update Label Information
a3RA0000000e47hMAA,a00A0000000quNsIAI,e-Cigarette RTE,Follow-up to our e-cigarette discussion,10,Chantix E-Cigarette Follow-Up Discussion
a3RA0000000e47iMAA,a00A0000000quNsIAI,Chantix.com RTE,Review enclosed follow up that you requested,8,Chantix Enclosed Follow Requested
a3RA0000000e47jMAA,a00A0000000quNsIAI,Chantix Welcome Kit RTE,Follow-up patient savings resource from our discussion,7,Chantix Discussion Kit Follow-Up
a3RA0000000e47kMAA,a00A0000000quNsIAI,Retreatment RTE,View information on retreatment for smokers,9,Chantix Retreatment Information View
a3RA0000000e47lMAA,a00A0000000quNsIAI,Meaningful Use RTE,Review enclosed follow up that you requested,8,Chantix Enclosed Follow Requested
a3RA0000000e483MAA,a00A0000000quNsIAI,Chantix Benefits of Quitting RTE,Follow-up: encourage smokers to quit at every visit,6,Chantix Benefits Encourage Follow-Up
a3RA0000000e486MAA,a00A0000000quNsIAI,Chantix Side Effects RTE,Follow-up: help inform patients about a smoking cessation treatment,5,Chantix Help Cessation Side
a3RA0000000e488MAA,a00A0000000quNsIAI,Chantix MDD RTE,Follow-up: help smokers to quit,4,Chantix Help Follow-Up Quit