
{
    "type": "object",
    "properties": {
        "json-output-2": {
            "type": "object",
            "properties": {
                "modelPath": {
                    "type": "string",
                    "default": "knime://knime.mountpoint/SCD_Model_Factory/tmp/ENT_039_Model_2020-06-26T17-27-05.282.table"
                }
            },
            "description": "",
            "example": {
                "modelPath": "knime://knime.mountpoint/SCD_Model_Factory/tmp/ENT_039_Model_2020-06-26T17-27-05.282.table"
            }
        }
    }
}